{
  "setuid": 10000,
  "setgid": 10000,
  "listen_port": 80,
  "request_validity_sec": 5,

  "___comment":"because of tally syncing:",
  "max_request_body_size": 10000000,

  "cmd_ftpwho": {"executable":"ftpwho", "args": ["-f","TODO"]},

  "proftpd_log_file": "TODO",

  "db": {
    "client": "sqlite3",
    "connection": {
      "busyTimeout": 60000,
      "filename": "vol.d/db/TODO.sqlite"
    },
    "useNullAsDefault": true
  },

  "volume_directory": "/var/lib/monster/ftp/",
  "complete_log": "/var/log/monster/ftp"
}
